…
``` r
library(dplyr)
library(readr)
library(brms)
library(rstan)
options(mc.cores = parallel::detectCores())

d <- read_csv("./data/NIHMS557790-supplement-Dataset_long_format.csv")
dwide <- d %>% 
  mutate(outcome = ifelse(var == 1, "depression", "quality")) %>% 
  select(pid:y, outcome) %>% 
  tidyr::spread(outcome, y)
dwide
#> # A tibble: 300 × 5
#>      pid  time    tx depression    quality
#> *  <int> <int> <int>      <dbl>      <dbl>
#> 1      1     0     1 -0.2978110 -0.1263426
#> 2      1     1     1  0.1500274 -0.1459226
#> 3      1     2     1 -0.2254487  0.8347519
#> 4      2     0     1 -2.2068290 -1.1174950
#> 5      2     1     1 -1.4847800 -0.3372014
#> 6      2     2     1 -2.5133370 -0.0778228
#> 7      3     0     1  0.1776886 -1.0550710
#> 8      3     1     1  0.9107191 -1.3366160
#> 9      3     2     1 -0.7120996 -0.8524922
#> 10     4     0     1 -0.2974198  0.4253734
#> # ... with 290 more rows
```
…
